{
  "host_groups": {
    "sensitive": false,
    "type": [
      "tuple",
      [
        [
          "object",
          {
            "extra_vars": [
              "object",
              {}
            ],
            "group": "string",
            "hosts": [
              "tuple",
              [
                [
                  "object",
                  {
                    "extra_vars": [
                      "object",
                      {}
                    ],
                    "id": "string",
                    "private_ip": "string",
                    "public_ip": "string"
                  }
                ]
              ]
            ]
          }
        ],
        [
          "object",
          {
            "extra_vars": [
              "object",
              {}
            ],
            "group": "string",
            "hosts": [
              "tuple",
              [
                [
                  "object",
                  {
                    "extra_vars": [
                      "object",
                      {}
                    ],
                    "id": "string",
                    "private_ip": "string",
                    "public_ip": "string"
                  }
                ]
              ]
            ]
          }
        ],
        [
          "object",
          {
            "extra_vars": [
              "object",
              {}
            ],
            "group": "string",
            "hosts": [
              "tuple",
              [
                [
                  "object",
                  {
                    "extra_vars": [
                      "object",
                      {}
                    ],
                    "id": "string",
                    "private_ip": "string",
                    "public_ip": "string"
                  }
                ]
              ]
            ]
          }
        ],
        [
          "object",
          {
            "extra_vars": [
              "object",
              {}
            ],
            "group": "string",
            "hosts": [
              "tuple",
              [
                [
                  "object",
                  {
                    "extra_vars": [
                      "object",
                      {}
                    ],
                    "id": "string",
                    "private_ip": "string",
                    "public_ip": "string"
                  }
                ],
                [
                  "object",
                  {
                    "extra_vars": [
                      "object",
                      {}
                    ],
                    "id": "string",
                    "private_ip": "string",
                    "public_ip": "string"
                  }
                ]
              ]
            ]
          }
        ]
      ]
    ],
    "value": [
      {
        "extra_vars": {},
        "group": "memcached",
        "hosts": [
          {
            "extra_vars": {},
            "id": "cluster-memcached",
            "private_ip": "cluster-memcached.awd8o0.cfg.use2.cache.amazonaws.com:11211",
            "public_ip": "cluster-memcached.awd8o0.cfg.use2.cache.amazonaws.com"
          }
        ]
      },
      {
        "extra_vars": {},
        "group": "backend",
        "hosts": [
          {
            "extra_vars": {},
            "id": "i-0cdbf8bd8567a9f1d",
            "private_ip": "10.1.1.127",
            "public_ip": "13.58.39.119"
          }
        ]
      },
      {
        "extra_vars": {},
        "group": "frontend",
        "hosts": [
          {
            "extra_vars": {},
            "id": "i-0905f37e82c64c4c5",
            "private_ip": "10.1.1.62",
            "public_ip": "3.16.203.43"
          }
        ]
      },
      {
        "extra_vars": {},
        "group": "servers",
        "hosts": [
          {
            "extra_vars": {},
            "id": "i-0cdbf8bd8567a9f1d",
            "private_ip": "10.1.1.127",
            "public_ip": "13.58.39.119"
          },
          {
            "extra_vars": {},
            "id": "i-0905f37e82c64c4c5",
            "private_ip": "10.1.1.62",
            "public_ip": "3.16.203.43"
          }
        ]
      }
    ]
  }
}
